ST558 Project 3 – Derek Chao - Diabetes EDA
…
Check for Missing Values

data |>
summarise(across(everything(), ~ sum(is.na(.)))) |>
pivot_longer(everything(), names_to = "variable", values_to = "n_missing") |>
arrange(desc(n_missing))

# A tibble: 23 × 2
   variable               n_missing
   <chr>                      <int>
 1 diabetes_binary                0
 2 high_bp                        0
 3 high_chol                      0
 4 chol_check                     0
 5 bmi                            0
 6 smoker                         0
 7 stroke                         0
 8 heart_diseaseor_attack         0
 9 phys_activity                  0
10 fruits                         0
# ℹ 13 more rows
…
