ST558 Project 3 – Derek Chao - Modeling
…
i Fold5: preprocessor 1/1, model 25/27 (predictions)

i Fold5: preprocessor 1/1, model 26/27

i Fold5: preprocessor 1/1, model 26/27 (predictions)

i Fold5: preprocessor 1/1, model 27/27

i Fold5: preprocessor 1/1, model 27/27 (predictions)

stopCluster(cl)

collect_metrics(tree_tuned_small)

# A tibble: 27 × 9
   cost_complexity tree_depth min_n .metric     .estimator  mean     n   std_err
             <dbl>      <int> <int> <chr>       <chr>      <dbl> <int>     <dbl>
 1    0.0000000001          3    10 mn_log_loss binary     0.406     5 0.0000483
 2    0.0000000001          3    25 mn_log_loss binary     0.406     5 0.0000483
 3    0.0000000001          3    40 mn_log_loss binary     0.406     5 0.0000483
 4    0.0000000001          6    10 mn_log_loss binary     0.353     5 0.00480  
 5    0.0000000001          6    25 mn_log_loss binary     0.350     5 0.00467  
 6    0.0000000001          6    40 mn_log_loss binary     0.351     5 0.00416  
 7    0.0000000001          9    10 mn_log_loss binary     0.387     5 0.00708  
 8    0.0000000001          9    25 mn_log_loss binary     0.343     5 0.00496  
 9    0.0000000001          9    40 mn_log_loss binary     0.339     5 0.00546  
10    0.00000316            3    10 mn_log_loss binary     0.406     5 0.0000483
# ℹ 17 more rows
# ℹ 1 more variable: .config <chr>
…
